{
	"additionalNodes": [ {
		"children": [],
		"id": "uZYiMP38BrxJx851gQgI4VSeKvz30lQO",
		"nodeType": "luaCommand",
		"parameters": [ {
			"name": "var",
			"value": "endThisGame"
		}, {
			"name": "value",
			"value": "nota_gutmanl_homework.EndMission()"
		}, {
			"name": "scriptName",
			"value": "store"
		} ],
		"scriptName": "store"
	} ],
	"additionalParameters": {
		"root": {
			"height": 88,
			"width": 180
		}
	},
	"inputs": [],
	"outputs": [],
	"properties": {
		"0rANBeEvc0libIKNW9pXMWXOFN6lYe1m": {
			"height": 132,
			"title": "formation.moveCustomGroup",
			"width": 513,
			"x": 1746,
			"y": 77
		},
		"1bmZIPD93AVIKjkNBHQCIp6TH1Lj8dLb": {
			"height": 60,
			"title": "sequence",
			"width": 143,
			"x": 787,
			"y": 539
		},
		"5kGHJOjqeIgbs2Tm0YsgzCBxFY3qazgI": {
			"height": 94,
			"title": "store",
			"width": 400,
			"x": 1088,
			"y": 779
		},
		"8nwpD65XrIoe9tGSgkrPdIHxpCliRLiz": {
			"height": 94,
			"title": "store",
			"width": 483,
			"x": 1089,
			"y": 535
		},
		"9G2wt16qV3eSbRAZJbDJ8waqGosY1BUB": {
			"height": 94,
			"title": "store",
			"width": 285,
			"x": 1125,
			"y": 414
		},
		"BJZKSuzvSxDuduBYOGwg6otUs05Yp9yv": {
			"height": 94,
			"title": "store",
			"width": 492,
			"x": 974,
			"y": 175
		},
		"L3k1aon5y2liJCXC3xQIdrHlXrtmmalb": {
			"height": 74,
			"title": "waitUntil",
			"width": 355,
			"x": 1157,
			"y": 1091
		},
		"NN03mS5HmIvuazAJO8FzHaQaDMJlGVBm": {
			"height": 94,
			"title": "store",
			"width": 491,
			"x": 965,
			"y": -10
		},
		"UHiSqfZ3UUogZkEG607UNEdMaWCvJUJX": {
			"height": 70,
			"title": "parallel",
			"width": 202,
			"x": 503,
			"y": 379
		},
		"Uuf0lZ3pMHlSkkiOr6REBLPEzYZDM8kw": {
			"height": 132,
			"title": "formation.moveCustomGroup",
			"width": 469,
			"x": 1128,
			"y": 1177
		},
		"VSaSoaCeZYIqTQ9Ph1b7ZQ2rQuj3dTS0": {
			"height": 94,
			"title": "store",
			"width": 241,
			"x": 955,
			"y": -129
		},
		"WrvmYgx4Bx55Asr8lM3A9HFvtvK3Eiol": {
			"height": 70,
			"title": "parallel",
			"width": 202,
			"x": 1492,
			"y": 271
		},
		"ZZAbeXKfdim6Svw0xOzCE4GpaPDF8AiN": {
			"height": 74,
			"title": "waitUntil",
			"width": 359,
			"x": 1092,
			"y": 654
		},
		"ZlmJFxU02G6F1LVqXPFy2DGJyYSEshIn": {
			"height": 60,
			"title": "sequence",
			"width": 143,
			"x": 276,
			"y": 20
		},
		"dQ13zKN7qkSHGjijjKAPKXuCOMKYpYHI": {
			"height": 132,
			"title": "formation.moveCustomGroup",
			"width": 513,
			"x": 1791,
			"y": 388
		},
		"dSeehFvJV6Ipw38av4LL6GQaHh8WtpsV": {
			"height": 94,
			"title": "store",
			"width": 392,
			"x": 1140,
			"y": 972
		},
		"taGtZT9XSlY1nFS4kJlrsxrvRNqu14eB": {
			"height": 60,
			"title": "sequence",
			"width": 143,
			"x": 1225,
			"y": 305
		},
		"tk9s5l29fhMu2MJSAW07d4kT7qKTZ1xZ": {
			"height": 74,
			"title": "waitUntil",
			"width": 355,
			"x": 1131,
			"y": 870
		},
		"uZYiMP38BrxJx851gQgI4VSeKvz30lQO": {
			"height": 94,
			"title": "store",
			"width": 237,
			"x": 1465,
			"y": 353
		},
		"vwra2eWhivgJdlPuPiefR779qEUzY6It": {
			"height": 132,
			"title": "formation.moveCustomGroup",
			"width": 513,
			"x": 1834,
			"y": 222
		},
		"xUGglznFJEWrYopeFBBVeb5MPIeEmh9U": {
			"height": 94,
			"title": "store",
			"width": 486,
			"x": 999,
			"y": 81
		}
	},
	"roles": [ {
		"categories": [],
		"name": "Role 0"
	} ],
	"root": {
		"children": [ {
			"children": [],
			"id": "VSaSoaCeZYIqTQ9Ph1b7ZQ2rQuj3dTS0",
			"nodeType": "luaCommand",
			"parameters": [ {
				"name": "var",
				"value": "hillPositions"
			}, {
				"name": "value",
				"value": "nota_gutmanl_homework.CTPGetHills()"
			}, {
				"name": "scriptName",
				"value": "store"
			} ],
			"scriptName": "store"
		}, {
			"children": [],
			"id": "NN03mS5HmIvuazAJO8FzHaQaDMJlGVBm",
			"nodeType": "luaCommand",
			"parameters": [ {
				"name": "var",
				"value": "peewees"
			}, {
				"name": "value",
				"value": "core.FilterUnitsByCategory(units,Categories.nota_gutmanl_homework.peewee)"
			}, {
				"name": "scriptName",
				"value": "store"
			} ],
			"scriptName": "store"
		}, {
			"children": [],
			"id": "xUGglznFJEWrYopeFBBVeb5MPIeEmh9U",
			"nodeType": "luaCommand",
			"parameters": [ {
				"name": "var",
				"value": "bear"
			}, {
				"name": "value",
				"value": "core.FilterUnitsByCategory(units,Categories.nota_gutmanl_homework.bear)[1]"
			}, {
				"name": "scriptName",
				"value": "store"
			} ],
			"scriptName": "store"
		}, {
			"children": [],
			"id": "BJZKSuzvSxDuduBYOGwg6otUs05Yp9yv",
			"nodeType": "luaCommand",
			"parameters": [ {
				"name": "var",
				"value": "warriors"
			}, {
				"name": "value",
				"value": "core.FilterUnitsByCategory(units,Categories.nota_gutmanl_homework.warriors)"
			}, {
				"name": "scriptName",
				"value": "store"
			} ],
			"scriptName": "store"
		}, {
			"children": [ {
				"children": [ {
					"children": [ {
						"children": [],
						"id": "0rANBeEvc0libIKNW9pXMWXOFN6lYe1m",
						"nodeType": "luaCommand",
						"parameters": [ {
							"name": "groupDefintion",
							"value": "nota_gutmanl_homework.MapUnitIDsToFormationIndexes({peewees[1]})"
						}, {
							"name": "position",
							"value": "hillPositions[1]"
						}, {
							"name": "formation",
							"value": "{Vec3(0,0,0)}"
						}, {
							"name": "fight",
							"value": "false"
						}, {
							"name": "scriptName",
							"value": "formation.moveCustomGroup"
						} ],
						"scriptName": "formation.moveCustomGroup"
					}, {
						"children": [],
						"id": "vwra2eWhivgJdlPuPiefR779qEUzY6It",
						"nodeType": "luaCommand",
						"parameters": [ {
							"name": "groupDefintion",
							"value": "nota_gutmanl_homework.MapUnitIDsToFormationIndexes({peewees[2]})"
						}, {
							"name": "position",
							"value": "hillPositions[2]"
						}, {
							"name": "formation",
							"value": "{Vec3(0,0,0)}"
						}, {
							"name": "fight",
							"value": "false"
						}, {
							"name": "scriptName",
							"value": "formation.moveCustomGroup"
						} ],
						"scriptName": "formation.moveCustomGroup"
					}, {
						"children": [],
						"id": "dQ13zKN7qkSHGjijjKAPKXuCOMKYpYHI",
						"nodeType": "luaCommand",
						"parameters": [ {
							"name": "groupDefintion",
							"value": "nota_gutmanl_homework.MapUnitIDsToFormationIndexes({peewees[3]})"
						}, {
							"name": "position",
							"value": "hillPositions[3]"
						}, {
							"name": "formation",
							"value": "{Vec3(0,0,0)}"
						}, {
							"name": "fight",
							"value": "false"
						}, {
							"name": "scriptName",
							"value": "formation.moveCustomGroup"
						} ],
						"scriptName": "formation.moveCustomGroup"
					} ],
					"id": "WrvmYgx4Bx55Asr8lM3A9HFvtvK3Eiol",
					"nodeType": "parallel",
					"parameters": [ {
						"name": "mode",
						"value": "all-success"
					} ]
				} ],
				"id": "taGtZT9XSlY1nFS4kJlrsxrvRNqu14eB",
				"nodeType": "sequence",
				"parameters": []
			}, {
				"children": [ {
					"children": [],
					"id": "9G2wt16qV3eSbRAZJbDJ8waqGosY1BUB",
					"nodeType": "luaCommand",
					"parameters": [ {
						"name": "var",
						"value": "cmds"
					}, {
						"name": "value",
						"value": "Spring.GetUnitCmdDescs(bear)"
					}, {
						"name": "scriptName",
						"value": "store"
					} ],
					"scriptName": "store"
				}, {
					"children": [],
					"id": "8nwpD65XrIoe9tGSgkrPdIHxpCliRLiz",
					"nodeType": "luaCommand",
					"parameters": [ {
						"name": "var",
						"value": "x"
					}, {
						"name": "value",
						"value": "Spring.GiveOrderToUnit(bear, 75, {warriors[1]},{})"
					}, {
						"name": "scriptName",
						"value": "store"
					} ],
					"scriptName": "store"
				}, {
					"children": [],
					"id": "ZZAbeXKfdim6Svw0xOzCE4GpaPDF8AiN",
					"nodeType": "luaCommand",
					"parameters": [ {
						"name": "condition",
						"value": "Spring.GetUnitTransporter(warriors[1])"
					}, {
						"name": "scriptName",
						"value": "waitUntil"
					} ],
					"scriptName": "waitUntil"
				}, {
					"children": [],
					"id": "5kGHJOjqeIgbs2Tm0YsgzCBxFY3qazgI",
					"nodeType": "luaCommand",
					"parameters": [ {
						"name": "var",
						"value": "x"
					}, {
						"name": "value",
						"value": "Spring.GiveOrderToUnit(bear, 75, {warriors[2]},{})"
					}, {
						"name": "scriptName",
						"value": "store"
					} ],
					"scriptName": "store"
				}, {
					"children": [],
					"id": "tk9s5l29fhMu2MJSAW07d4kT7qKTZ1xZ",
					"nodeType": "luaCommand",
					"parameters": [ {
						"name": "condition",
						"value": "Spring.GetUnitTransporter(warriors[2])"
					}, {
						"name": "scriptName",
						"value": "waitUntil"
					} ],
					"scriptName": "waitUntil"
				}, {
					"children": [],
					"id": "dSeehFvJV6Ipw38av4LL6GQaHh8WtpsV",
					"nodeType": "luaCommand",
					"parameters": [ {
						"name": "var",
						"value": "x"
					}, {
						"name": "value",
						"value": "Spring.GiveOrderToUnit(bear,75,{warriors[3]},{})"
					}, {
						"name": "scriptName",
						"value": "store"
					} ],
					"scriptName": "store"
				}, {
					"children": [],
					"id": "L3k1aon5y2liJCXC3xQIdrHlXrtmmalb",
					"nodeType": "luaCommand",
					"parameters": [ {
						"name": "condition",
						"value": "Spring.GetUnitTransporter(warriors[3])"
					}, {
						"name": "scriptName",
						"value": "waitUntil"
					} ],
					"scriptName": "waitUntil"
				}, {
					"children": [],
					"id": "Uuf0lZ3pMHlSkkiOr6REBLPEzYZDM8kw",
					"nodeType": "luaCommand",
					"parameters": [ {
						"name": "groupDefintion",
						"value": "nota_gutmanl_homework.MapUnitIDsToFormationIndexes({bear})"
					}, {
						"name": "position",
						"value": "hillPositions[4]"
					}, {
						"name": "formation",
						"value": "{Vec3(0,0,0)}"
					}, {
						"name": "fight",
						"value": "true"
					}, {
						"name": "scriptName",
						"value": "formation.moveCustomGroup"
					} ],
					"scriptName": "formation.moveCustomGroup"
				} ],
				"id": "1bmZIPD93AVIKjkNBHQCIp6TH1Lj8dLb",
				"nodeType": "sequence",
				"parameters": []
			} ],
			"id": "UHiSqfZ3UUogZkEG607UNEdMaWCvJUJX",
			"nodeType": "parallel",
			"parameters": [ {
				"name": "mode",
				"value": "all-success"
			} ]
		} ],
		"id": "ZlmJFxU02G6F1LVqXPFy2DGJyYSEshIn",
		"nodeType": "sequence",
		"parameters": []
	}
}