{
	"additionalNodes": [],
	"additionalParameters": {
		"root": {
			"height": 148,
			"width": 241
		}
	},
	"inputs": [ {
		"command": "BETS_UNIT",
		"name": "airTransport"
	}, {
		"command": "BETS_UNIT",
		"name": "targetUnit"
	} ],
	"outputs": [],
	"properties": {
		"0DyrOYdib3N9KbVVVqie5iPJPOqaVjOG": {
			"height": 94,
			"title": "nota_gutmanl_homework.DumpUnitFromAtlas",
			"width": 392,
			"x": 633,
			"y": 298
		},
		"80BL1ALN9C7W3NmvrzROtzWD5BB8TihF": {
			"height": 60,
			"title": "sequence",
			"width": 143,
			"x": 1174,
			"y": 200
		},
		"9mwhU0v1zt8AGtTsks2rZWqg5b2a2gtm": {
			"height": 60,
			"title": "sequence",
			"width": 143,
			"x": 325,
			"y": 29
		},
		"BTqOkv6vLSiOj0RrQVeZlVogvGh7atDi": {
			"height": 94,
			"title": "nota_gutmanl_homework.MoveUnit",
			"width": 915,
			"x": 1378,
			"y": 296
		},
		"GDyszK7c5BAn9LwBfg9Zqu4UnfGXoVAW": {
			"height": 94,
			"title": "nota_gutmanl_homework.MoveUnit",
			"width": 629,
			"x": 570,
			"y": 423
		},
		"HKaWSGDDWPZVEUkef9RVZ3ybNmqAj6yS": {
			"height": 94,
			"title": "store",
			"width": 894,
			"x": 1276,
			"y": -118
		},
		"Wi9domt4WCw2l27Lq3tsXiQK9O4iTW0H": {
			"height": 94,
			"title": "store",
			"width": 894,
			"x": 1563,
			"y": 158
		},
		"YpPUFDBCCyiZ5VpjWiic2zq9zscRr4kz": {
			"height": 54,
			"title": "success",
			"width": 132,
			"x": 1401,
			"y": 106
		},
		"dk9G6eQ3TOJLa2EetGeIhWefTcZAa0kD": {
			"height": 92,
			"title": "nota_gutmanl_homework.GrabUnitWithAtlas",
			"width": 342,
			"x": 591,
			"y": -183
		},
		"fjMM2oy7NUL3MOHEKBa8Fbqd34egEw5A": {
			"height": 94,
			"title": "nota_gutmanl_homework.MoveUnit",
			"width": 912,
			"x": 608,
			"y": -8
		},
		"kmKJQhp4AZYJWktIzZaEsz1SIpTKMIEy": {
			"height": 90,
			"title": "luaCondition",
			"width": 439,
			"x": 627,
			"y": 101
		},
		"n8tVPHKhcvLPy2YrdMFcE0CB6U5SM3cD": {
			"height": 72,
			"title": "wait",
			"width": 131,
			"x": 654,
			"y": 216
		}
	},
	"roles": [ {
		"categories": [],
		"name": "Role 0"
	} ],
	"root": {
		"children": [ {
			"children": [],
			"id": "dk9G6eQ3TOJLa2EetGeIhWefTcZAa0kD",
			"nodeType": "luaCommand",
			"parameters": [ {
				"name": "atlas",
				"value": "airTransport[1]"
			}, {
				"name": "targetUnit",
				"value": "targetUnit[1]"
			}, {
				"name": "scriptName",
				"value": "nota_gutmanl_homework.GrabUnitWithAtlas"
			} ],
			"scriptName": "nota_gutmanl_homework.GrabUnitWithAtlas"
		}, {
			"children": [],
			"id": "HKaWSGDDWPZVEUkef9RVZ3ybNmqAj6yS",
			"nodeType": "luaCommand",
			"parameters": [ {
				"name": "var",
				"value": "initialUnloadPosition"
			}, {
				"name": "value",
				"value": "nota_gutmanl_homework.GetRandomPointOnCircle(core.MissionInfo().safeArea.center,core.MissionInfo().safeArea.radius - 10)"
			}, {
				"name": "scriptName",
				"value": "store"
			} ],
			"scriptName": "store"
		}, {
			"children": [],
			"id": "fjMM2oy7NUL3MOHEKBa8Fbqd34egEw5A",
			"nodeType": "luaCommand",
			"parameters": [ {
				"name": "unit",
				"value": "airTransport[1]"
			}, {
				"name": "position",
				"value": "initialUnloadPosition"
			}, {
				"name": "scriptName",
				"value": "nota_gutmanl_homework.MoveUnit"
			} ],
			"scriptName": "nota_gutmanl_homework.MoveUnit"
		}, {
			"children": [ {
				"children": [],
				"id": "YpPUFDBCCyiZ5VpjWiic2zq9zscRr4kz",
				"nodeType": "success",
				"parameters": []
			}, {
				"children": [ {
					"children": [],
					"id": "Wi9domt4WCw2l27Lq3tsXiQK9O4iTW0H",
					"nodeType": "luaCommand",
					"parameters": [ {
						"name": "var",
						"value": "newUnloadPosition"
					}, {
						"name": "value",
						"value": "nota_gutmanl_homework.GetRandomPointOnCircle(core.MissionInfo().safeArea.center,core.MissionInfo().safeArea.radius - 10)"
					}, {
						"name": "scriptName",
						"value": "store"
					} ],
					"scriptName": "store"
				}, {
					"children": [],
					"id": "BTqOkv6vLSiOj0RrQVeZlVogvGh7atDi",
					"nodeType": "luaCommand",
					"parameters": [ {
						"name": "unit",
						"value": "airTransport[1]"
					}, {
						"name": "position",
						"value": "newUnloadPosition"
					}, {
						"name": "scriptName",
						"value": "nota_gutmanl_homework.MoveUnit"
					} ],
					"scriptName": "nota_gutmanl_homework.MoveUnit"
				} ],
				"id": "80BL1ALN9C7W3NmvrzROtzWD5BB8TihF",
				"nodeType": "sequence",
				"parameters": []
			} ],
			"id": "kmKJQhp4AZYJWktIzZaEsz1SIpTKMIEy",
			"nodeType": "luaCondition",
			"parameters": [ {
				"name": "expression",
				"value": "not nota_gutmanl_homework.GetUnitsBelowUnit(targetUnit[1])"
			}, {
				"name": "repeat",
				"value": "false"
			} ]
		}, {
			"children": [],
			"id": "n8tVPHKhcvLPy2YrdMFcE0CB6U5SM3cD",
			"nodeType": "wait",
			"parameters": [ {
				"name": "time",
				"value": 2
			} ]
		}, {
			"children": [],
			"id": "0DyrOYdib3N9KbVVVqie5iPJPOqaVjOG",
			"nodeType": "luaCommand",
			"parameters": [ {
				"name": "atlas",
				"value": "airTransport[1]"
			}, {
				"name": "position",
				"value": "Vec3(Spring.GetUnitPosition(airTransport[1]))"
			}, {
				"name": "scriptName",
				"value": "nota_gutmanl_homework.DumpUnitFromAtlas"
			} ],
			"scriptName": "nota_gutmanl_homework.DumpUnitFromAtlas"
		}, {
			"children": [],
			"id": "GDyszK7c5BAn9LwBfg9Zqu4UnfGXoVAW",
			"nodeType": "luaCommand",
			"parameters": [ {
				"name": "unit",
				"value": "airTransport[1]"
			}, {
				"name": "position",
				"value": "Vec3(core.MissionInfo().safeArea.center.x,core.MissionInfo().safeArea.center.y,30)"
			}, {
				"name": "scriptName",
				"value": "nota_gutmanl_homework.MoveUnit"
			} ],
			"scriptName": "nota_gutmanl_homework.MoveUnit"
		} ],
		"id": "9mwhU0v1zt8AGtTsks2rZWqg5b2a2gtm",
		"nodeType": "sequence",
		"parameters": []
	}
}